…
remotes::install_github("iecastro/healthdatacsv")
```

## Example

This is a basic example which shows you how to solve a common problem:

``` r
library(healthdatacsv)

# query API based on keywords
fetch_catalog(keyword = "alcohol|drugs")
#> # A tibble: 137 x 6
#>    publisher.name   product   description   modified distribution csv_avail
#>    <chr>            <chr>     <chr>         <chr>    <list>       <lgl>    
#>  1 Centers for Dis… Alzheime… "<p>2011-201… 2019-05… <df[,6] [4 … TRUE     
#>  2 U.S. Food and D… All FDA … "<p>Contains… 2010-10… <df[,6] [1 … FALSE    
#>  3 U.S. Food and D… Adverse … "<p>The Adve… 2004-01… <df[,6] [1 … FALSE    
#>  4 U.S. Food and D… Drugs to… "<p>Companie… 2013-09… <df[,6] [1 … FALSE    
#>  5 Centers for Dis… U.S. Chr… "<p>CDC's Di… 2018-07… <df[,6] [4 … TRUE     
#>  6 Centers for Dis… CDC PRAM… "<ol start=\… 2018-07… <df[,6] [4 … TRUE     
#>  7 Centers for Dis… CDC PRAM… "<ol start=\… 2018-07… <df[,6] [4 … TRUE     
#>  8 Centers for Dis… CDC PRAM… "<ol start=\… 2018-07… <df[,6] [4 … TRUE     
#>  9 Centers for Dis… CDC PRAM… "<ol start=\… 2018-07… <df[,6] [4 … TRUE     
#> 10 Centers for Dis… CDC PRAM… "<ol start=\… 2018-07… <df[,6] [4 … TRUE     
#> # … with 127 more rows
…
